Godoberi Dictonary analysis
…
Godoberi Dictonary analysis

G. Moroz

library(tidyverse)
theme_set(theme_bw())
godoberi <- read_csv("../godoberi_dict_v2.csv")
godoberi

## # A tibble: 5,719 x 6
##       id lemma    morphology    bor definition              source              
##    <dbl> <chr>    <chr>       <dbl> <chr>                   <chr>               
##  1     1 I <NA>           NA . 1) ;  "<p lang=\"ru-U\" 
##  2     2 - <NA>           NA  ,  I     "<p lang=\"ru-U\" 
##  3     3   (-)          1 I (-)        "<p lang=\"ru-U\" 
##  4     4   (-I)     1 II (-I)  "<p lang=\"ru-U\" 
##  5     5   (-)         1 (-) ;  "<p lang=\"ru-U\" 
##  6     6  (-I, -     1 III (-I, -)  "<p lang=\"ru-U\" 
##  7     7   (-I, -)     1 III (-I, -)  "<p lang=\"ru-U\" 
##  8     8    (-I, -)     1 III (-I, -)  "<p lang=\"ru-U\" 
##  9     9 / (-)          1 I (-)         "<p lang=\"ru-U\" 
## 10    10 / (-I)     1 II (-I)   "<p lang=\"ru-U\" 
## #  with 5,709 more rows
…
godoberi_ipa %>% 
  select(lemma, IPA, definition)

## # A tibble: 4,837 x 3
##    lemma      IPA                definition                                     
##    <chr>      <chr>              <chr>                                          
##  1 I   a-b-a*-d-a-t-i    . 1) ; I   
##  2  a-b-a*-d-i-l-a-b-  ,  I                            
##  3    a-w-a-d-a*-n-a-b   (- . I, II) , ; 
##  4  a-w-a*-d-a-n--a- ( ., -, ) .  
##  5   a-w-a*-d-a-n--i   III (-I) ; ; I
##  6   a-w-a-d-a-n--i*   ( ., -, )  
##  7        a-w-a*-l           III (-I, -) ;    
##  8    a-w-a*-l-a--i-r   III (-I, . .)   ; -
##  9       a-w-a-r-a*         III (-I) 1) , ;  
## 10     a-w-l-a*-q-i      III (-I, -) 1) , ; II
## #  with 4,827 more rows
…
         initial = ifelse(initial == "", "#", initial),
         initial_length = ifelse(str_detect(initial, "#"), 0, str_count(initial, "-")+1),
         final = str_extract(IPA, str_c(vowels, not_vowels, "*$")),
         final_vowel = str_extract(final, vowels),
         final = ifelse(str_detect(final, "-"), 
                        str_remove(final, str_c(vowels, ".*?-")), 
                        "#"),
         final_length = ifelse(str_detect(final, "#"), 0, str_count(final, "-")+1),
         n_syllables = str_count(IPA, "[auieo]")) %>% 
  filter(!is.na(final_length)|
           !is.na(initial_length)) ->
  godoberi_ipa_in_fi
godoberi_ipa_in_fi

## # A tibble: 4,836 x 14
##       id morphology   bor definition source lemma IPA   initial initial_vowel
##    <dbl> <chr>      <dbl> <chr>      <chr>  <chr> <chr> <chr>   <chr>        
##  1     1 <NA>          NA . 1) "<p l  a-b- #       a            
##  2     2 <NA>          NA  ,  "<p l  a-b- #       a            
##  3    12 (- . I    NA (- . I "<p l  a-w- #       a            
##  4    13 ( .,    NA ( ., "<p l  a-w- #       a            
##  5    14 (-I)        NA III (-I "<p l  a-w- #       a            
##  6    15 ( .    NA ( . "<p l  a-w- #       a            
##  7    16 (-I, -    NA III (-I "<p l   a-w- #       a            
##  8    17 (-I,     NA III (-I "<p l  a-w- #       a            
##  9    20 (-I)        NA III (-I "<p l  a-w- #       a            
## 10    23 (-I, -    NA III (-I "<p l  a-w- #       a            
## #  with 4,826 more rows, and 5 more variables: initial_length <dbl>,
## #   final <chr>, final_vowel <chr>, final_length <dbl>, n_syllables <int>
…
